{
  "results" : {
    "experiment" : {
      "id" : "simplemap-spark-scala"
    },
    "config" : {
      "src" : "",
      "dst" : "",
      "cores" : "12",
      "generate" : "true",
      "blocks" : "512",
      "blockSize" : "64",
      "blockSizeUnit" : "MB",
      "nparts" : "4",
      "size" : "1",
      "nodes" : "1",
      "jsonFilename" : "/home/thiruvat/logs/908817.json",
      "xmlFilename" : ""
    },
    "report" : {
      "mapTime" : "1.6470073431E10",
      "shiftTime" : "5.6931132582E10",
      "avgTime" : "1.4171095109E10"
    }
  }
}