cc114.cooley
# Spark is now running with 1 workers:
export SPARK_STATUS_URL=http://cc114.cooley.pub.alcf.anl.gov:8000
export SPARK_MASTER_URI=spark://cc114:7077
Running: /home/thiruvat/code/spark/bin/spark-submit --master spark://cc114:7077 ./target/scala-2.10/simplemap-spark-scala-assembly-1.0.jar --generate --blocks 16 --block_size 64 --nodes 1 --nparts 4 --cores 12 --json /home/thiruvat/logs/908811.json
generated option
RDD count 17
RDD count after shift 17
avg(x)=55013.13598099867 avg(y)=-26343.607936029606 avg(z)=13747.04573005666
