{
  "results" : {
    "experiment" : {
      "id" : "simplemap-spark-scala"
    },
    "config" : {
      "src" : "",
      "dst" : "",
      "cores" : "12",
      "generate" : "true",
      "blocks" : "16384",
      "blockSize" : "64",
      "blockSizeUnit" : "MB",
      "nparts" : "4",
      "size" : "1",
      "nodes" : "16",
      "jsonFilename" : "/home/thiruvat/logs/909048.json",
      "xmlFilename" : ""
    },
    "report" : {
      "mapTime" : "3.176392849E10",
      "shiftTime" : "2.11684161115E11",
      "avgTime" : "6.9274400072E10"
    }
  }
}