cc090.cooley
cc105.cooley
cc034.cooley
cc033.cooley
cc083.cooley
cc082.cooley
cc044.cooley
cc095.cooley
# Spark is now running with 8 workers:
export SPARK_STATUS_URL=http://cc090.cooley.pub.alcf.anl.gov:8000
export SPARK_MASTER_URI=spark://cc090:7077
Running: /home/thiruvat/code/spark/bin/spark-submit --master spark://cc090:7077 ./target/scala-2.10/simplemap-spark-scala-assembly-1.0.jar --generate --blocks 32 --block_size 64 --nodes 8 --nparts 4 --cores 12 --json /home/thiruvat/logs/909009.json
generated option
RDD count 33
RDD count after shift 33
avg(x)=106327.38690407372 avg(y)=-51087.08048445735 avg(z)=26539.95891454902
