{
  "results" : {
    "experiment" : {
      "id" : "simplemap-spark-scala"
    },
    "config" : {
      "src" : "",
      "dst" : "",
      "cores" : "12",
      "generate" : "true",
      "blocks" : "256",
      "blockSize" : "64",
      "blockSizeUnit" : "MB",
      "nparts" : "4",
      "size" : "1",
      "nodes" : "8",
      "jsonFilename" : "/home/thiruvat/logs/909008.json",
      "xmlFilename" : ""
    },
    "report" : {
      "mapTime" : "4.070447714E9",
      "shiftTime" : "3.042127215E9",
      "avgTime" : "1.593563344E9"
    }
  }
}