cc090.cooley
cc105.cooley
cc034.cooley
cc033.cooley
cc083.cooley
cc082.cooley
cc044.cooley
cc095.cooley
# Spark is now running with 8 workers:
export SPARK_STATUS_URL=http://cc090.cooley.pub.alcf.anl.gov:8000
export SPARK_MASTER_URI=spark://cc090:7077
Running: /home/thiruvat/code/spark/bin/spark-submit --master spark://cc090:7077 ./target/scala-2.10/simplemap-spark-scala-assembly-1.0.jar --generate --blocks 512 --block_size 64 --nodes 8 --nparts 4 --cores 12 --json /home/thiruvat/logs/909011.json
generated option
RDD count 513
RDD count after shift 513
avg(x)=1657609.3450802714 avg(y)=-796584.3800087175 avg(z)=415289.8634148696
