cc066.cooley
cc015.cooley
cc106.cooley
cc110.cooley
cc089.cooley
cc123.cooley
cc113.cooley
cc062.cooley
# Spark is now running with 8 workers:
export SPARK_STATUS_URL=http://cc066.cooley.pub.alcf.anl.gov:8000
export SPARK_MASTER_URI=spark://cc066:7077
Running: /home/thiruvat/code/spark/bin/spark-submit --master spark://cc066:7077 ./target/scala-2.10/simplemap-spark-scala-assembly-1.0.jar --generate --blocks 16 --block_size 64 --nodes 8 --nparts 4 --cores 12 --json /home/thiruvat/logs/909006.json
generated option
RDD count 17
RDD count after shift 17
avg(x)=54782.15740783514 avg(y)=-26419.296378225004 avg(z)=13807.999889365508
