cc113.cooley
cc119.cooley
cc062.cooley
cc048.cooley
cc083.cooley
cc082.cooley
cc098.cooley
cc120.cooley
cc039.cooley
cc123.cooley
cc056.cooley
cc057.cooley
cc124.cooley
cc014.cooley
cc093.cooley
cc100.cooley
cc099.cooley
cc069.cooley
cc112.cooley
cc085.cooley
cc075.cooley
cc006.cooley
cc087.cooley
cc025.cooley
cc008.cooley
cc096.cooley
cc091.cooley
cc053.cooley
cc126.cooley
cc040.cooley
cc107.cooley
cc012.cooley
# Spark is now running with 32 workers:
export SPARK_STATUS_URL=http://cc113.cooley.pub.alcf.anl.gov:8000
export SPARK_MASTER_URI=spark://cc113:7077
Running: /home/thiruvat/code/spark/bin/spark-submit --master spark://cc113:7077 ./target/scala-2.10/simplemap-spark-scala-assembly-1.0.jar --generate --blocks 32 --block_size 64 --nodes 32 --nparts 4 --cores 12 --json /home/thiruvat/logs/909435.json
generated option
RDD count 33
RDD count after shift 33
avg(x)=106609.27914657553 avg(y)=-51201.882454395294 avg(z)=26913.11253564142
