cc018.cooley
cc061.cooley
cc005.cooley
cc076.cooley
cc031.cooley
cc016.cooley
cc119.cooley
cc095.cooley
cc105.cooley
cc034.cooley
cc033.cooley
cc083.cooley
cc082.cooley
cc098.cooley
cc050.cooley
cc039.cooley
cc048.cooley
cc093.cooley
cc100.cooley
cc120.cooley
cc112.cooley
cc085.cooley
cc087.cooley
cc008.cooley
cc096.cooley
cc091.cooley
cc053.cooley
cc126.cooley
cc040.cooley
cc081.cooley
cc064.cooley
cc117.cooley
# Spark is now running with 32 workers:
export SPARK_STATUS_URL=http://cc018.cooley.pub.alcf.anl.gov:8000
export SPARK_MASTER_URI=spark://cc018:7077
Running: /home/thiruvat/code/spark/bin/spark-submit --master spark://cc018:7077 ./target/scala-2.10/simplemap-spark-scala-assembly-1.0.jar --generate --blocks 1024 --block_size 64 --nodes 32 --nparts 4 --cores 12 --json /home/thiruvat/logs/909429.json
generated option
RDD count 1025
RDD count after shift 1025
avg(x)=3313113.571745883 avg(y)=-1590748.4972057692 avg(z)=829124.518170299
