{
  "results" : {
    "experiment" : {
      "id" : "simplemap-spark-scala"
    },
    "config" : {
      "src" : "",
      "dst" : "",
      "cores" : "12",
      "generate" : "true",
      "blocks" : "384",
      "blockSize" : "8192",
      "blockSizeUnit" : "MB",
      "nparts" : "1",
      "size" : "1",
      "nodes" : "32",
      "jsonFilename" : "/home/thiruvat/logs/895045.json",
      "xmlFilename" : ""
    },
    "report" : {
      "mapTime" : "1.76058193695E11",
      "shiftTime" : "1.81221164414E11",
      "avgTime" : "8.3242971031E10"
    }
  }
}