cc066.cooley
cc061.cooley
cc005.cooley
cc103.cooley
cc076.cooley
cc031.cooley
cc028.cooley
cc024.cooley
cc007.cooley
cc045.cooley
cc042.cooley
cc072.cooley
cc070.cooley
cc086.cooley
cc012.cooley
cc051.cooley
# Spark is now running with 16 workers:
export SPARK_STATUS_URL=http://cc066.cooley.pub.alcf.anl.gov:8000
export SPARK_MASTER_URI=spark://cc066:7077
Running: /home/thiruvat/code/spark/bin/spark-submit --master spark://cc066:7077 ./target/scala-2.10/simplemap-spark-scala-assembly-1.0.jar --generate --blocks 192 --block_size 16384 --nodes 16 --nparts 1 --cores 12 --json /home/thiruvat/logs/895039.json
generated option
RDD count 193
RDD count after shift 193
avg(x)=1.4603185696542925E8 avg(y)=-7.011656754778455E7 avg(z)=3.662382917307366E7
