{
  "results" : {
    "experiment" : {
      "id" : "simplemap-spark-scala"
    },
    "config" : {
      "src" : "",
      "dst" : "",
      "cores" : "12",
      "generate" : "true",
      "blocks" : "48",
      "blockSize" : "4096",
      "blockSizeUnit" : "MB",
      "nparts" : "1",
      "size" : "1",
      "nodes" : "4",
      "jsonFilename" : "/home/thiruvat/logs/895024.json",
      "xmlFilename" : ""
    },
    "report" : {
      "mapTime" : "6.9761426101E10",
      "shiftTime" : "9.2177294223E10",
      "avgTime" : "3.6693792496E10"
    }
  }
}