{
  "results" : {
    "experiment" : {
      "id" : "simplemap-spark-scala"
    },
    "config" : {
      "src" : "",
      "dst" : "",
      "cores" : "12",
      "generate" : "true",
      "blocks" : "96",
      "blockSize" : "16384",
      "blockSizeUnit" : "MB",
      "nparts" : "1",
      "size" : "1",
      "nodes" : "8",
      "jsonFilename" : "/home/thiruvat/logs/895027.json",
      "xmlFilename" : ""
    },
    "report" : {
      "mapTime" : "3.17932994141E11",
      "shiftTime" : "3.8695465644E11",
      "avgTime" : "1.92146251616E11"
    }
  }
}